"1","@Abeng_Ridwan81Jika pejuang oposisi jadi nyebong itu tandanya,anda baru saja selesai menjalani operasi pencangkokan “lobus frontalis”Kalau ini alasannya, bisa dimaklumi. Sebab, setelah itu,Anda memang perlu istirahat menggunakan fungsi analitis#YangCurang"
"0","@ChasseurRouge7 Dont cheat#YangCurangGakTenang"
"0","@kaizer_1st Bro, can we just done it already?!!#YangCurangGakTenang"
"0","@AsFairus Seperti inikah #YangCurangGakTenang akibat #PresidenYangTertukar ???"
"0","@utipahkiaDone ras and block...#YangCurangGakTenang"
"0","@bmt_sabaryGo internasional brother#YangCurangGakTenang"
"1","@anggarini90 Wow The power of love"
"0","@f212w Hahahahahahahaaaaa....#LegitimasiDitanganRakyatOposisi #PrabowoJanganHadiriPelantikan#YangCurangGakTenang"
"0","@PatpatPatrickSt which is never gonna happened#YangCurangGakTenang#PidatoDuluLengserKemudian"
"1","bener kecurangan kecurangan sistematis dan terstruktur terbukti, kenapa MK menolak gugatan 02 prabowosandi..kalian semua pelaku dan pendukung kecuranganbertanggungjawab atas semua kekacauan PILPRES 2019 ini!! #YangCurangGakTenang"
"0","RT@MichelAdamNewLawan #YangCurangGakTenang"
"0","RT@Nawaabdullah1betul #YangCurangGakTenang"
"0","RT@brandalsantri45Jangan ngopihh sembarang! Ngopilah jika punya uang! #YangCurangGakTenang#YangCurangGakTenang"
"0","@Adra_silentSemoga 1 persatu dicabut aja rumput2 yg ada di kpu, bawalah, mk dan lainnya..#yangcuranggaktenang"
"1","@mad_pecciBlm di hapus pelajaran agama aja sdh begini..apalagi klo pelajaran agama dhapus...apa jadinya akhlaq generasi bangsa kita......#PresidenYangTertukar #YangCurangGakTenang"
"0","@hari_mawonWowww Amazing... Just One Kick... To KO Askren...Congratulation.... Masvidal !!!!#YangCurangGakTenang #MatikanTVAdaJa"
"0","@Rakyat_keritisIni lagi makanan halal? Mau dibawa kemana bangsa ini#YangCurangGakTenang"
"0","@AthaSami yess..#YangCurangGakTenang #YangCurangGakTenang "
"1","@DeniFaisal20 Patuh 'ijtima Ulama Damai dlm aksinya Cinta Negeri iniIngin Keadilan ditegakkan Mereka adlh kita yg Cinta & Sayang NKRI - Pancasila - UUD'45Mereka, diDuga DI KHIANATI & DICURANGI,tp mereka ttp DAMAI sampai hari iniKAPAN MARAHMU ?!#YangCurang"
"0","@Kazumi_kun Kecelakaan besarlah bagi orang-orang yang curang. Qs. 83:1 #YangCurangGakTenang"
"1","@tanabe_bee MUI Pusat: Hanya Pendukung Komunisme yang Minta Pendidikan Agama di Sekolah Dihapuskan #YangCurangGakTenang"
"1","@Ikuadrat03 Cerita malam di ruang sidang PS : Lapor pak hakim kalo disini ada yg kentut.HK : Mana buktinya PS : Buktinya Ini ada baunya kentut pak hakim. HK : Kamu liat kentutnya tidak? PS : Tidak pak. Maka saya putuskan disini tidak ada yg kentut.#yangcu"
"0","@waruga_Nampol dong #YangCurangGakTenang"
"1","@eSKey_KS Segala sesuatu yang dihiasi kecurangan akan berujung pada kesengsaraan dan ketidaksenangan."
"0","@AsFairus Wait and see #YangCurangGakTenang"
"1","@RelawanProSandi Kalian katanya harus optimis!! Kalian gmn sih, menang kok takut gagal?? Dah tuduh lawan politik semua sampah dan kekerasan, skrg kalian mau rekonsiliasi?? Politisi PDIP: Bangsa Ini Akan Gagal Kalau Tidak Rekonsiliasi #YangCurangGakTenang"
"0","@bib3guna Aduh...#YangCurangGakTenang "
"0","@rumah_ke2 Catatan unik, yg menang bukannya sibuk mempersiapkan pesta kemenangan #YangCurangGakTenang#YangCurangGakTenang"
"0","@K83_TheCoffee Yang Curang Gak Tenang Sepanjang hidupnya, dunia akhirat, kecurangan yang dilakukan, akan selalu menghantuinya. #YangCurangGakTenang#YangCurangGakTenang"
"0","@Abeng_Ridwan81 Ayo dong pesta ah kan sdh di legalkan sama emkaiy,panggil metalica biar cadas meriahkan pesta kemengan yg bersih tanpa TSM Gober..Gober..!!"
"0","@Diash11638778 Go !! Go !! #YangCurangGakTenang#YangCurangGakTenang"
"0","@romimarius02 Betul #YangCurangGakTenang"
"0","@Etam394gmailco1 Hm hm.....#YangCurangGakTenang#YangCurangGakTenang"
"0","@zaizarki122 mantaaaps...#YangCurangGakTenang"
"0","@zaizarki122 LAWAAANNN...#YangCurangGakTenang"
"0","@_amare8 Salute to PKS #YangCurangGakTenang #YangCurangGakTenang "
"0","@ustadtengkuzul Bedanya Orang JUJUR dgn Orang CURANG: Orang JUJUR Tidak Perlu Pengakuan dari Orang Orang Curang, bahkan dari Orang Orang JUJUR Sekalipun...Tapi Orang CURANG Sangat Butuh Pengakuan dari Orang Orang JUJUR. Karena Pengakuan dr Org Org CURANG "
"1","@idtodaydotco Jadi tau kan kenapa harus 'dimenangkan'..."
"0","@DenBagusDhewe Artinya Presiden yang Dimenangkan cacat hukum dan tak punya legitimasi dari rakyat. Hanya dilegalkan oleh kaum yang terlibat kecurangan. #kamirakyatoposisi #KamiDukungFPi #yangcuranggaktenang"
"1","@WhySoSensi Tukang klaim itu tak punya prestasi. Didandani pake gemerlap medali dan kesuksesanpun akan diminta lagi sama yang punya... Emang dia gak bisa apa-apa selain klaim punya orang... #KamiBersamaFPI #KamiRakyatOposisi #yangcuranggaktenang"
"1","@mas__piyuuu Paranoid kelas akut, makanya kalau jadi pemimpin itu yang disuka oleh rakyat, jadi gak akan merasa ketakutan gitu loh... #YangCurangGakTenang"
"0","@Irenvien Apa karena ada 'niat baik' yaitu NGAKU... #YangCurangGakTenang #YangCurangGakTenang"
"1","@geloraco Janji janji tinggal janji dana-dana hanya mimpi... #YangCurangGakTenang #YangCurangGakTenang"
"1","@Purwo_no1266 LEBIH BAIK MATI DARI PADA HARUS MENIPU RAKYAT SEMBOYAN KESATRIA YG PATUT DITIRU PARA PEMIMPIN #MenangDustaItuNista Kalau ada pemimpin yang merasa JUJUR dan dibenarkan dirinya sendiri beserta gerombolannya, bisa diharapkan akan memimpin denga"
"0","RT@DeeWienna_474 No caption #YangCurangGakTenang#YangCurangGakTenang"
"0","RT@Ganden32628300 HANCUR MAK #YangCurangGakTenang"
"1","RT@GakNyerahBRO Jenenge Imam...tapi gak iso dadi Imam.... Eee salah...ralat maksudnya bisa jadi Imam, ajak anaknya ikut nikmati jatah...Ngopi dulu... Mam...mam...gayamu...#YangCurangGakTenang"""
"1","@AhmadAb99000035 Jejak digital itu memang sakit bong...!!! #YangCurangGakTenang"
"1","@Adra_silent Semoga 1 persatu dicabut aja rumput2 yg ada di kpu, bawalah, mk dan lainnya..#yangcuranggaktenang"
"1","@brandalsantri45 Ngotot : Ngegas : Ngeden Brandal jadi ingat pemeran tokoh Gatotkoco dalam suatu acara di masa lampau. Kumis sebelah kanan melengkung ke arah tenggara, sedang yg kiri berbentuk lidah buaya! Otot kawat, Balung besi! Masuk gih #YangCurangGak"
"0","@liem_id Jadi begini salah satu bentuk rayuan tingkat tinggi kalian utk mengajak rekonsiliasi ? Manusia mana yg rela datang utk mengaitkan tali gantungan ke leher sendiri ?#YangCurangGakTenang"
"1","@syafrinkar Netizen Masih Kecewa dg Pilpres 2019,tagar #YangCurangGakTenang Viral Sakit Karena merasa dicurangi itu Pedih-Perih Ini bukan lagi masalah Prabowo-Sandi,tp soal Demokrasi yg Jurdil Menerima Kekalahan itu Ksatria,dan Menolak Kecurangan itu Kons"
"0","@ayu_andira_ Tergantung yang ngejek dari kubu mana, kalau dari kubu yang onoh mah para dayang-dayang nya sibuk cari alasan pembenaran... #YangCurangGakTenang #YangCurangGakTenang"
"0","@do_ra_dong Rakyat di negeri ini dibikin otomatis bodoh dengan diterapkannya sistem zonasi pada PPDB yang membuat jadi malas rajin belajar... #YangCurangGakTenang #YangCurangGakTenang"
"1","@Naoliviea Rakyat dibikin bodoh, rakyat pintar malah dipersulit, contohnya sistem zonasi PPDB... YangCurangGakTenang #YangCurangGakTenan"
"1","@MichelAdamNew Yang dipenjara karena dukung 02 kok gak dipikirkan kemanusiaannya... Rezim ModalCongorJagoNgeles #YangCurangGakTenang #YangCurangGakTenang"
"1","@geloraco Yang gak disuka rakyat yah rezim ini.. Gak ada masalah di rakyat. Apa lagi di dunia real cebong itu siluman halusinasi.... Buzzer bayaran.... Nasi bungkusnya gak ada juga selesai #KamiRakyatKamiOposisi #yangcuranggaktenang"
"0","@MiniGoldMarket Polisi bagian paranormal... #YangCurangGakTenang #YangCurangGakTenang"
"0","@afifstiawan Emang Mble e #YangCurangGakTenang"
"0","@watcher_mind Bodo amat anying #YangCurangGakTenang"
"0","@Uwaisalatas YangCurangGakTenang"
"1","@KartikaJuni3 Banser sok paling bener semoga Allah SWT segera azab kalian #YangCurangGakTenang"
"1","@CH_chotimah Kasian sampe capresnya di demo sendiri. Teriak di sini, teriak di jalanan. Kemarin bikin hastag #yangcuranggaktenang, ya unk mereka sendiri. Orang2 bungul."
"0","@marlin_un Sepertinya hukum di negeri sdh di pecundangi oleh para Pecundang yg Paham hukum, dalam pisisi kasus yg sama, satu bukti dianggap Ilegal dan satunya tidak legal, dan lebih Parah curang bagian dari demokrasi pecundang biadab#MenangDustaItuNista #"
"0","@ChikaNindy Silahkan angkat piala hasil rampokanmu itu tapi jangan harap ada yang bertepuk tangan #YangCurangGakTenang"
"1","@Wagun9 #YangCurangGakTenang bingung gue ma cebong masa puisi begini bikin pada kelojotan,SEKOLAM pada ngamuk..gua bikin mantra ah kirim ke abu gosok @permadiaktivis kali aja nambah dua botol"
"1","@PresidenteMedia Skemanya : Membenturkan Umat Islam Dengan Kelompok Radikal Bentukan Pemerintah Lalu Membuat Sandiwara Dengan Menuduh Umat Islam Sebagai Teroris.Gatot Nurmantyo: Saya Tak Takut Dibilang Provokasi, Pancasila Memang Akan Diganti Komunis #Yan"
"0","@youngDmai MalingggMalinggggMalinggggggggg #YangCurangGakTenang #YangCurangGakTenang"
"0","@Padishah_sh Lawan #YangCurangGakTenang"
"0","@SEWSetyo Pretending to win #YangCurangGakTenang"
"0","@NurtejaWahyu Go go#YangCurangGakTenang "
"0","@_dilalfa_III Stress #YangCurangGakTenang #YangCurangGakTenang"
"0","@Padishah_sh Tegar tersumbat..Ganti tagar rojerrr #YangCurangGakTenang"
"0","@aksioma02 ARDATH? Mantap..#YangCurangGakTenang hatinya was was #YangCurangGakTenang"
"1","@blxmultiservic1 Dah d bayar mahal2 tp kinerjanya kelas kerja amatiran, parraaaaahhhhh "
"0","@Djohan73197029 #YangCurangGakTenang welcome loser kampret"
"0","@sby9090 bisa aja neng #YangCurangGakTenang"
"0","@caplun6 Dasar dobol #YangCurangGakTenang #YangCurangGakTenang"
"1","@bob666rock yg kalah pd Gila "
"0","@NugrahaIrwin Jgn ngotot takut uratnya pegatt #YangCurangGakTenang "
"1","@TanpaWaj4h___ Dimana mana maling emang paling takut ketawan, was-was hidupnya ga tenang Dan sorry ya pendukung 02 gak akan pernah mendukung PERAMPOK"
"0","@NovriyantoYanto Yang CURANG PASTI CELAKA...DICOPOT DR JABATANNYA BARU PERMULAAN....#yangcuranggaktenang"
"0","@BangOi17 Kang bohong Sdh mendarah daging #YangCurangGakTenang"
"0","@Lyra28081706 Memalukan.. Hanya orang bodoh yang mau banyak ngutang padahal negerinya diberi kekayaan yang melimpah.. #YangCurangGakTenang"
"1","@baginda1ikbal Udah ada peringatan merokok menyebabkan kangker dan serangan jantung masih aja di hisap ya bego Udah pernah di tipu dengan seribu janji, di khianati dengan sejuta kecurangan ya masih di pilih dan paksa untuk menang #YangCurangGakTenang "
"0","@ElfianSKM Lihatnih gerombolan curang pura2 hebat, tunggulah azab kalian cepat atau lambat #YangCurangGakTenang"
"0","@BertemanM Mereka foya-foya diatas penderitaan rakyat... Kita lihat dan tunggu saja sampai kapan bisa bertahan... #YangCurangGakTenang"
"1","@Sandra_Aidelia Yg bikin status koplak pol..... Menang masih ribut apalagi kalah.... #YangCurangGakTenang"
"0","@rockygerung Dua kata BERJUTA MAKNA, Berjuta kata TANPA MAKNA. Tong kosong nyaring bunyinya. Air beriak tanda tak dalam.. Nagar aah #YangCurangGakTenang #YangCurangGakTenang"
"0","@geloraco Belagu loe.... Menang Curang ...Bangga #YangCurangGakTenang"
"1","@Yusrilihza_Mhd yg lbh hina itu salah langkah dlm menentukan jalan hidup, kemarin mencaci sekarang menjilat sampe licin tu lidah..Kasian, hina amat akhir perjalanan hidupmu dgn menghinakan diri seperti itu. kmn otak cerdasmu? jejak digital emang kejam #Ya"
"0","@fadlizon Haram salaman sama orang yang nipu kita ... #KamiOposisi #YangCurangGakTenang"
"0","@FerdinandHaean2 Yang jelas ente jangan dekat2 Krn TDK bermanfaat #YangCurangGakTenang"
"0","@TofaGarisLurus Percuma dilaporkan juga cuman jadi tumpukan sampah... #YangCurangGakTenang #YangCurangGakTenang"
"0","@Entow1j4y4 Emang Gue Pikirin..... #YangCurangGakTenang"
"0","@mama65rocket pas sakratul maut baru berkecamuk kehidupan nya dipakai untuk curang #YangCurangGakTenang curanggak tenang"
"0","@Purwo_no1266 Ya GENDENG Om Sapa gang GENDENG MUNGKIN GAK WARAS #YangCurangGakTenang"
"0","@wild_and_gt Juara korupsi PEDEIPEH cebong FYI, biar ga goblokk #YangCurangGakTenang"
"0","@masnun_sukardi yang sok pancasilais sebenarnya adalah komunis.#LegitimasiMilik02 #kedaulatanrakyatbukanditanganmk #YangCurangGakTenang"
"0","@DeeWienna_474 Apalagi disumpahin rakyat 85 juta orang , udah kaya makan cabe #YangCurangGakTenang #YangCurangGakTenang"
